Exploring Brand Perception and Repeat Purchase Behavior Through Unsupervised Learning
…
cumulative percent variance
97
7
pca

cumulative percent variance
100
8
pca

3 pca components extracts 71% of the variation in the 8 variables, as per the above Cumulative Percentage, hence 3 components is deemed sufficient to explain the variation in variables.

4.0.4 Obtain the loading

# A tibble: 64 × 4
   terms          value component id   
   <chr>          <dbl> <chr>     <chr>
 1 performance    0.242 PC1       pca  
 2 leadership     0.219 PC1       pca  
 3 productLatest -0.420 PC1       pca  
 4 fun           -0.284 PC1       pca  
 5 serious        0.164 PC1       pca  
 6 bargain        0.436 PC1       pca  
 7 bestValue      0.493 PC1       pca  
 8 trendiness    -0.418 PC1       pca  
 9 performance    0.428 PC2       pca  
10 leadership     0.532 PC2       pca  
# ℹ 54 more rows
…
